<svg width="18" height="18" viewBox="0 0 18 18" fill="none" xmlns="http://www.w3.org/2000/svg">
	<path
		d="M2.9998 11.25V9.24855M6.9998 11.25V9.24855M10.9998 11.25V9.24855M14.9998 11.25V9.24855M1.7998 13.8H16.1998V16.2H1.7998V13.8ZM1.7998 6.60005V5.00005L8.70391 1.80005L16.1998 5.00005V6.60005H1.7998Z"
		stroke="#98A1AA"
		stroke-width="2"
		stroke-linecap="round"
		stroke-linejoin="round" />
</svg>
