<svg viewBox="0 0 22 22" fill="none" xmlns="http://www.w3.org/2000/svg">
	<path
		d="M10.1281 3.07272H4.62812C2.80559 3.07272 1.32812 4.55018 1.32812 6.37272V17.3728C1.32812 19.1954 2.80559 20.6728 4.62812 20.6728H15.6281C17.4507 20.6728 18.9281 19.1954 18.9281 17.3728L18.9281 11.8728M6.82812 15.1727L10.8303 14.3663C11.0427 14.3235 11.2378 14.2189 11.391 14.0656L20.3502 5.10147C20.7798 4.67168 20.7795 3.97503 20.3496 3.5456L18.4517 1.64987C18.022 1.22062 17.3257 1.22091 16.8963 1.65052L7.93616 10.6156C7.78324 10.7686 7.67883 10.9633 7.63599 11.1753L6.82812 15.1727Z"
		stroke="currentColor"
		stroke-width="2"
		stroke-linecap="round"
		stroke-linejoin="round" />
</svg>
