<svg width="24" height="24" viewBox="0 0 24 24" fill="none" xmlns="http://www.w3.org/2000/svg">
	<path
		d="M10.7996 21.5998H5.9996C4.67411 21.5998 3.5996 20.5253 3.59961 19.1998L3.5997 4.79989C3.59971 3.47441 4.67422 2.3999 5.9997 2.3999H16.8C18.1255 2.3999 19.2 3.47442 19.2 4.7999V11.3999M15.6 18.0425L18.0543 15.5999M18.0543 15.5999L20.4 17.9321M18.0543 15.5999V21.5999M7.79998 7.1999H15M7.79998 10.7999H15M7.79998 14.3999H11.4"
		stroke="black"
		stroke-width="2"
		stroke-linecap="round"
		stroke-linejoin="round" />
</svg>
