<svg viewBox="0 0 24 24" fill="none" xmlns="http://www.w3.org/2000/svg">
	<path
		d="M14.9996 2.3999V5.9999C14.9996 6.66264 15.5369 7.1999 16.1996 7.1999H19.7996M8.39959 7.1999H10.7996M8.39959 10.7999H15.5996M8.39959 14.3999H15.5996M17.9996 4.1999C17.4655 3.72204 16.9113 3.15528 16.5614 2.78718C16.3286 2.54224 16.007 2.3999 15.669 2.3999H6.59931C5.27383 2.3999 4.19932 3.47441 4.19931 4.79989L4.19922 19.1998C4.19921 20.5253 5.27372 21.5998 6.59921 21.5998L17.3993 21.5999C18.7247 21.5999 19.7992 20.5254 19.7993 19.2L19.7996 6.47773C19.7996 6.1709 19.6825 5.87594 19.4696 5.65503C19.0758 5.24655 18.4182 4.57442 17.9996 4.1999Z"
		stroke="currentColor"
		stroke-width="2"
		stroke-linecap="round"
		stroke-linejoin="round" />
</svg>
