<svg width="20" height="20" viewBox="0 0 20 20" fill="none" xmlns="http://www.w3.org/2000/svg">
	<path
		d="M3 7C2.44772 7 2 7.44771 2 8C2 8.55228 2.44772 9 3 9V7ZM17 9C17.5523 9 18 8.55228 18 8C18 7.44771 17.5523 7 17 7V9ZM3.08398 11.4999C2.5317 11.4999 2.08398 11.9476 2.08398 12.4999C2.08398 13.0522 2.5317 13.4999 3.08398 13.4999V11.4999ZM17.084 13.4999C17.6363 13.4999 18.084 13.0522 18.084 12.4999C18.084 11.9476 17.6363 11.4999 17.084 11.4999V13.4999ZM17 10C17 13.866 13.866 17 10 17V19C14.9706 19 19 14.9706 19 10H17ZM10 17C6.13401 17 3 13.866 3 10H1C1 14.9706 5.02944 19 10 19V17ZM3 10C3 6.13401 6.13401 3 10 3V1C5.02944 1 1 5.02944 1 10H3ZM10 3C13.866 3 17 6.13401 17 10H19C19 5.02944 14.9706 1 10 1V3ZM10 17C9.84761 17 9.62361 16.9336 9.3327 16.6524C9.03698 16.3665 8.72498 15.9045 8.44128 15.256C7.87518 13.9621 7.5 12.1046 7.5 10H5.5C5.5 12.3137 5.90832 14.4562 6.60897 16.0577C6.95864 16.8569 7.40083 17.5665 7.94258 18.0903C8.48913 18.6187 9.18588 19 10 19V17ZM7.5 10C7.5 7.89542 7.87518 6.03791 8.44128 4.74396C8.72498 4.09551 9.03698 3.63353 9.3327 3.34763C9.62361 3.06638 9.84761 3 10 3V1C9.18588 1 8.48913 1.38133 7.94258 1.90973C7.40083 2.43348 6.95864 3.14307 6.60897 3.94233C5.90832 5.54381 5.5 7.6863 5.5 10H7.5ZM10 19C10.8141 19 11.5109 18.6187 12.0574 18.0903C12.5992 17.5665 13.0414 16.8569 13.391 16.0577C14.0917 14.4562 14.5 12.3137 14.5 10H12.5C12.5 12.1046 12.1248 13.9621 11.5587 15.256C11.275 15.9045 10.963 16.3665 10.6673 16.6524C10.3764 16.9336 10.1524 17 10 17V19ZM14.5 10C14.5 7.6863 14.0917 5.54381 13.391 3.94233C13.0414 3.14307 12.5992 2.43348 12.0574 1.90973C11.5109 1.38133 10.8141 1 10 1V3C10.1524 3 10.3764 3.06638 10.6673 3.34763C10.963 3.63353 11.275 4.09551 11.5587 4.74396C12.1248 6.03791 12.5 7.89542 12.5 10H14.5ZM3 9H17V7H3V9ZM3.08398 13.4999H17.084V11.4999H3.08398V13.4999Z"
		fill="#161A1D" />
</svg>
