<svg width="20" height="20" viewBox="0 0 20 20" fill="none" xmlns="http://www.w3.org/2000/svg">
	<path
		d="M7.31778 3H4.22955C3.76152 3 3.31266 3.18437 2.98171 3.51256C2.65077 3.84075 2.46484 4.28587 2.46484 4.75V15.25C2.46484 15.7141 2.65077 16.1592 2.98171 16.4874C3.31266 16.8156 3.76152 17 4.22955 17H7.31778M7.53711 10H17.5371M17.5371 10L13.7162 6M17.5371 10L13.7162 14"
		stroke="#161A1D"
		stroke-width="2"
		stroke-linecap="round"
		stroke-linejoin="round" />
</svg>
