<svg viewBox="0 0 22 22" fill="none" xmlns="http://www.w3.org/2000/svg">
<g id="message-text-01">
<path id="Vector" d="M7.69922 7.70019H14.2992M7.69922 12.1002H11.5492M19.7992 11.0002C19.7992 12.2652 19.5323 13.4679 19.0517 14.555L19.8009 19.7994L15.3065 18.6758C14.0333 19.3918 12.564 19.8002 10.9992 19.8002C6.13911 19.8002 2.19922 15.8603 2.19922 11.0002C2.19922 6.14009 6.13911 2.2002 10.9992 2.2002C15.8593 2.2002 19.7992 6.14009 19.7992 11.0002Z" stroke="#494C50" stroke-width="2" stroke-linecap="round" stroke-linejoin="round"/>
</g>
</svg>
