<svg width="25" height="24" viewBox="0 0 25 24" fill="none" xmlns="http://www.w3.org/2000/svg">
	<path d="M12.2 4.80005L12.2 19.2M19.4 12L5 12" stroke="currentColor" stroke-width="2" stroke-linecap="round" />
</svg>
