<svg width="18" height="18" viewBox="0 0 18 18" fill="none" xmlns="http://www.w3.org/2000/svg">
	<path
		d="M12.6953 12.78L15.3002 15.3M14.4602 8.58001C14.4602 11.8274 11.8276 14.46 8.5802 14.46C5.33276 14.46 2.7002 11.8274 2.7002 8.58001C2.7002 5.33258 5.33276 2.70001 8.5802 2.70001C11.8276 2.70001 14.4602 5.33258 14.4602 8.58001Z"
		stroke="#9BA2AA"
		stroke-width="2"
		stroke-linecap="round" />
</svg>
