<svg viewBox="0 0 18 18" fill="none" xmlns="http://www.w3.org/2000/svg">
<g id="sort-vertical-02">
<path id="Icon" d="M10.0811 4.97049H16.5M10.0811 8.58157H14.666M10.0811 12.1927H12.8321M4.35423 4.5V13.5M4.35423 13.5L1.5 10.7488M4.35423 13.5L7.31745 10.7488" stroke="#2E3032" stroke-width="2" stroke-linecap="round" stroke-linejoin="round"/>
</g>
</svg>
