<svg width="18" height="18" viewBox="0 0 18 18" fill="none" xmlns="http://www.w3.org/2000/svg">
<g id="luggage-02">
<path id="Icon" d="M5.84999 14.4V6.3M11.7 14.4V6.3M6.29999 5.85V4.05C6.29999 3.55295 6.70293 3.15 7.19999 3.15H10.35C10.847 3.15 11.25 3.55295 11.25 4.05V5.85M3.59999 14.85H14.4C15.3941 14.85 16.2 14.0441 16.2 13.05V7.65C16.2 6.65589 15.3941 5.85 14.4 5.85H3.59999C2.60588 5.85 1.79999 6.65589 1.79999 7.65V13.05C1.79999 14.0441 2.60588 14.85 3.59999 14.85Z" stroke="#9BA2AA" stroke-width="2" stroke-linecap="round" stroke-linejoin="round"/>
</g>
</svg>
