<svg width="25" height="24" viewBox="0 0 25 24" fill="none" xmlns="http://www.w3.org/2000/svg">
	<path
		d="M10.6 2.40002C10.6 1.84774 10.1523 1.40002 9.59997 1.40002C9.04768 1.40002 8.59997 1.84774 8.59997 2.40002H10.6ZM8.59997 21.6C8.59997 22.1523 9.04768 22.6 9.59997 22.6C10.1523 22.6 10.6 22.1523 10.6 21.6H8.59997ZM6.59997 3.40002H18.6V1.40002H6.59997V3.40002ZM21.2 6.00002V18H23.2V6.00002H21.2ZM18.6 20.6H6.59997V22.6H18.6V20.6ZM3.99997 18V6.00002H1.99997V18H3.99997ZM6.59997 20.6C5.16403 20.6 3.99997 19.436 3.99997 18H1.99997C1.99997 20.5405 4.05946 22.6 6.59997 22.6V20.6ZM21.2 18C21.2 19.436 20.0359 20.6 18.6 20.6V22.6C21.1405 22.6 23.2 20.5405 23.2 18H21.2ZM18.6 3.40002C20.0359 3.40002 21.2 4.56408 21.2 6.00002H23.2C23.2 3.45951 21.1405 1.40002 18.6 1.40002V3.40002ZM6.59997 1.40002C4.05946 1.40002 1.99997 3.45951 1.99997 6.00002H3.99997C3.99997 4.56408 5.16403 3.40002 6.59997 3.40002V1.40002ZM8.59997 2.40002V21.6H10.6V2.40002H8.59997ZM3.59997 10H21.6V8.00002H3.59997V10Z"
		fill="#161A1D" />
</svg>
