<svg viewBox="0 0 22 22" fill="none" xmlns="http://www.w3.org/2000/svg">
	<g id="users-profiles-02">
		<path
			id="Icon"
			d="M17.6002 12.5454C18.7619 13.4134 19.8002 15.5988 19.8002 16.9454C19.8002 17.3649 19.4941 17.7049 19.1166 17.7049H18.7002M14.3002 8.98761C15.0517 8.55288 15.5573 7.74034 15.5573 6.8097C15.5573 5.87906 15.0517 5.06651 14.3002 4.63178M2.88382 17.7049H14.9261C15.3037 17.7049 15.6097 17.3649 15.6097 16.9454C15.6097 14.3085 13.4067 12.1708 8.90496 12.1708C4.40319 12.1708 2.2002 14.3085 2.2002 16.9454C2.2002 17.3649 2.50626 17.7049 2.88382 17.7049ZM11.4192 6.8097C11.4192 8.1983 10.2936 9.32398 8.90496 9.32398C7.51636 9.32398 6.39067 8.1983 6.39067 6.8097C6.39067 5.42109 7.51636 4.29541 8.90496 4.29541C10.2936 4.29541 11.4192 5.42109 11.4192 6.8097Z"
			stroke="currentColor"
			stroke-width="2"
			stroke-linecap="round" />
	</g>
</svg>
